Total partition moves: 334
Cluster (id: 150091308) was merged into Cluster (id: 150051312)
Cluster (id: 150091206) was merged into Cluster (id: 150091207)
Cluster (id: 150071606) was merged into Cluster (id: 150071607)
Cluster (id: 150010702) was merged into Cluster (id: 150010708)
Cluster (id: 150010105) was merged into Cluster (id: 150010106)
Cluster (id: 150091306) was merged into Cluster (id: 150091305)
Cluster (id: 150010109) was merged into Cluster (id: 150010108)
Cluster (id: 150032504) was merged into Cluster (id: 150032503)
Cluster (id: 150032703) was merged into Cluster (id: 150032701)
Cluster (id: 150010705) was merged into Cluster (id: 150010103)
Cluster (id: 150090905) was merged into Cluster (id: 150090906)
Cluster (id: 150033603) was merged into Cluster (id: 150033604)
Cluster (id: 150010108) was merged into Cluster (id: 150010110)
Cluster (id: 150034805) was merged into Cluster (id: 150033005)
Cluster (id: 150010511) was merged into Cluster (id: 150010510)
Cluster (id: 150010303) was merged into Cluster (id: 150010302)
Cluster (id: 150091309) was merged into Cluster (id: 150091310)
Cluster (id: 150034902) was merged into Cluster (id: 150035104)
Cluster (id: 150071603) was merged into Cluster (id: 150071604)
Cluster (id: 150034703) was merged into Cluster (id: 150034705)
Cluster (id: 150010508) was merged into Cluster (id: 150010507)
Cluster (id: 150091303) was merged into Cluster (id: 150091304)
Cluster (id: 150034801) was merged into Cluster (id: 150034704)
Cluster (id: 150010103) was merged into Cluster (id: 150010115)
Cluster (id: 150010708) was merged into Cluster (id: 150010704)
Cluster (id: 150010405) was merged into Cluster (id: 150010407)
Cluster (id: 150091006) was merged into Cluster (id: 150051312)
Cluster (id: 150032904) was merged into Cluster (id: 150033202)
Cluster (id: 150010110) was merged into Cluster (id: 150010107)
Cluster (id: 150032202) was merged into Cluster (id: 150032201)
Cluster (id: 150010510) was merged into Cluster (id: 150010504)
Cluster (id: 150031802) was merged into Cluster (id: 150031801)
Cluster (id: 150010604) was merged into Cluster (id: 150010607)
Cluster (id: 150010111) was merged into Cluster (id: 150010112)
Cluster (id: 150010308) was merged into Cluster (id: 150010302)
Cluster (id: 150091203) was merged into Cluster (id: 150090907)
Cluster (id: 150010205) was merged into Cluster (id: 150010204)
Cluster (id: 150010506) was merged into Cluster (id: 150010507)
Cluster (id: 150035106) was merged into Cluster (id: 150035107)
Cluster (id: 150010204) was merged into Cluster (id: 150010114)
Cluster (id: 150032706) was merged into Cluster (id: 150032704)
Cluster (id: 150032605) was merged into Cluster (id: 150032602)
Cluster (id: 150033205) was merged into Cluster (id: 150033302)
Cluster (id: 150010301) was merged into Cluster (id: 150010501)
Cluster (id: 150031705) was merged into Cluster (id: 150031704)
Cluster (id: 150090803) was merged into Cluster (id: 150090901)
Cluster (id: 150010512) was merged into Cluster (id: 150010509)
Cluster (id: 150010104) was merged into Cluster (id: 150010106)
Cluster (id: 150090901) was merged into Cluster (id: 150090807)
Cluster (id: 150010101) was merged into Cluster (id: 150010102)
Cluster (id: 150091201) was merged into Cluster (id: 150091301)
Cluster (id: 150032701) was merged into Cluster (id: 150032702)
Cluster (id: 150010607) was merged into Cluster (id: 150010603)
Cluster (id: 150031701) was merged into Cluster (id: 150031702)
Cluster (id: 150033402) was merged into Cluster (id: 150033403)
Cluster (id: 150091310) was merged into Cluster (id: 150091311)
Cluster (id: 150034901) was merged into Cluster (id: 150035003)
Cluster (id: 150010201) was merged into Cluster (id: 150010113)
Cluster (id: 150034004) was merged into Cluster (id: 150034401)
Cluster (id: 150031807) was merged into Cluster (id: 150031806)
Cluster (id: 150032006) was merged into Cluster (id: 150032001)
Cluster (id: 150033602) was merged into Cluster (id: 150033404)
Cluster (id: 150035004) was merged into Cluster (id: 150034904)
Cluster (id: 150033102) was merged into Cluster (id: 150033201)
Cluster (id: 150032106) was merged into Cluster (id: 150032203)
Cluster (id: 150033404) was merged into Cluster (id: 150033405)
Cluster (id: 150032004) was merged into Cluster (id: 150032003)
Cluster (id: 150010203) was merged into Cluster (id: 150010208)
Cluster (id: 150071607) was merged into Cluster (id: 150071605)
Cluster (id: 150010207) was merged into Cluster (id: 150010206)
Cluster (id: 150035101) was merged into Cluster (id: 150035001)
Cluster (id: 150035105) was merged into Cluster (id: 150035104)
Cluster (id: 150091304) was merged into Cluster (id: 150091305)
Cluster (id: 150032802) was merged into Cluster (id: 150032803)
Cluster (id: 150010507) was merged into Cluster (id: 150010505)
Cluster (id: 150032705) was merged into Cluster (id: 150032707)
Cluster (id: 150031906) was merged into Cluster (id: 150031907)
Cluster (id: 150032404) was merged into Cluster (id: 150032503)
Cluster (id: 150033804) was merged into Cluster (id: 150033905)
Cluster (id: 150010106) was merged into Cluster (id: 150010707)
Cluster (id: 150091104) was merged into Cluster (id: 150091001)
Cluster (id: 150031805) was merged into Cluster (id: 150031804)
Cluster (id: 150071601) was merged into Cluster (id: 150071505)
Cluster (id: 150034201) was merged into Cluster (id: 150033503)
Cluster (id: 150071404) was merged into Cluster (id: 150071403)
Cluster (id: 150010407) was merged into Cluster (id: 150010503)
Cluster (id: 150033208) was merged into Cluster (id: 150033207)
Cluster (id: 150034905) was merged into Cluster (id: 150034906)
Cluster (id: 150032105) was merged into Cluster (id: 150032104)
Cluster (id: 150033002) was merged into Cluster (id: 150033004)
Cluster (id: 150031806) was merged into Cluster (id: 150031903)
Cluster (id: 150033606) was merged into Cluster (id: 150033607)
Cluster (id: 150033305) was merged into Cluster (id: 150033401)
Cluster (id: 150010113) was merged into Cluster (id: 150010107)
Cluster (id: 150010602) was merged into Cluster (id: 150010601)
Cluster (id: 150034802) was merged into Cluster (id: 150033005)
Cluster (id: 150010501) was merged into Cluster (id: 150010202)
Cluster (id: 150034301) was merged into Cluster (id: 150034203)
Cluster (id: 150031903) was merged into Cluster (id: 150031905)
Cluster (id: 150032708) was merged into Cluster (id: 150033003)
Cluster (id: 150032507) was merged into Cluster (id: 150032604)
Cluster (id: 150033605) was merged into Cluster (id: 150033601)
Cluster (id: 150090805) was merged into Cluster (id: 150090806)
Cluster (id: 150010701) was merged into Cluster (id: 150010606)
Cluster (id: 150010306) was merged into Cluster (id: 150010307)
Cluster (id: 150010404) was merged into Cluster (id: 150010408)
Cluster (id: 150090907) was merged into Cluster (id: 150091205)
Cluster (id: 150090804) was merged into Cluster (id: 150091004)
Cluster (id: 150031905) was merged into Cluster (id: 150031902)
Cluster (id: 150032603) was merged into Cluster (id: 150032501)
Cluster (id: 150033506) was merged into Cluster (id: 150033505)
Cluster (id: 150071403) was merged into Cluster (id: 150071405)
Cluster (id: 150034504) was merged into Cluster (id: 150034503)
Cluster (id: 150091311) was merged into Cluster (id: 150091307)
Cluster (id: 150010115) was merged into Cluster (id: 150010706)
Cluster (id: 150091004) was merged into Cluster (id: 150090801)
Cluster (id: 150033204) was merged into Cluster (id: 150033301)
Cluster (id: 150032505) was merged into Cluster (id: 150032801)
Cluster (id: 150033501) was merged into Cluster (id: 150034102)
Cluster (id: 150034904) was merged into Cluster (id: 150034903)
Cluster (id: 150091205) was merged into Cluster (id: 150091202)
Cluster (id: 150034701) was merged into Cluster (id: 150034606)
Cluster (id: 150010302) was merged into Cluster (id: 150010304)
Cluster (id: 150033903) was merged into Cluster (id: 150033902)
Cluster (id: 150031804) was merged into Cluster (id: 150031803)
Cluster (id: 150034002) was merged into Cluster (id: 150034104)
Cluster (id: 150032702) was merged into Cluster (id: 150032607)
Cluster (id: 150034606) was merged into Cluster (id: 150034601)
Cluster (id: 150031707) was merged into Cluster (id: 150031706)
Cluster (id: 150032607) was merged into Cluster (id: 150032601)
Cluster (id: 150033201) was merged into Cluster (id: 150033101)
Cluster (id: 150034101) was merged into Cluster (id: 150034001)
Cluster (id: 150032707) was merged into Cluster (id: 150032806)
Cluster (id: 150032401) was merged into Cluster (id: 150032406)
Cluster (id: 150035006) was merged into Cluster (id: 150035005)
Cluster (id: 150032102) was merged into Cluster (id: 150032101)
Cluster (id: 150034705) was merged into Cluster (id: 150034702)
Cluster (id: 150032402) was merged into Cluster (id: 150032405)
Cluster (id: 150033503) was merged into Cluster (id: 150033504)
Cluster (id: 150091202) was merged into Cluster (id: 150091207)
Cluster (id: 150010401) was merged into Cluster (id: 150010502)
Cluster (id: 150010107) was merged into Cluster (id: 150010112)
Cluster (id: 150033304) was merged into Cluster (id: 150033303)
Cluster (id: 150010605) was merged into Cluster (id: 150010608)
Cluster (id: 150032902) was merged into Cluster (id: 150032905)
Cluster (id: 150071401) was merged into Cluster (id: 150071402)
Cluster (id: 150031902) was merged into Cluster (id: 150031901)
Cluster (id: 150032503) was merged into Cluster (id: 150032201)
Cluster (id: 150032205) was merged into Cluster (id: 150032206)
Cluster (id: 150032501) was merged into Cluster (id: 150032502)
Cluster (id: 150034104) was merged into Cluster (id: 150034202)
Cluster (id: 150034903) was merged into Cluster (id: 150035002)
Cluster (id: 150032801) was merged into Cluster (id: 150032506)
Cluster (id: 150091001) was merged into Cluster (id: 150091002)
Cluster (id: 150035003) was merged into Cluster (id: 150035107)
Cluster (id: 150034103) was merged into Cluster (id: 150034106)
Cluster (id: 150010408) was merged into Cluster (id: 150010402)
Cluster (id: 150071503) was merged into Cluster (id: 150071502)
Cluster (id: 150010304) was merged into Cluster (id: 150010305)
Cluster (id: 150010504) was merged into Cluster (id: 150010509)
Cluster (id: 150091305) was merged into Cluster (id: 150091302)
Cluster (id: 150035102) was merged into Cluster (id: 150035103)
Cluster (id: 150033004) was merged into Cluster (id: 150033001)
Cluster (id: 150033802) was merged into Cluster (id: 150033803)
Cluster (id: 150035005) was merged into Cluster (id: 150035001)
Cluster (id: 150034604) was merged into Cluster (id: 150034605)
Cluster (id: 150034401) was merged into Cluster (id: 150034006)
Cluster (id: 150032804) was merged into Cluster (id: 150033202)
Cluster (id: 150032303) was merged into Cluster (id: 150032301)
Cluster (id: 150031801) was merged into Cluster (id: 150031703)
Cluster (id: 150035103) was merged into Cluster (id: 150032002)
Cluster (id: 150032201) was merged into Cluster (id: 150032204)
Cluster (id: 150032206) was merged into Cluster (id: 150032103)
Cluster (id: 150033403) was merged into Cluster (id: 150033306)
Cluster (id: 150033104) was merged into Cluster (id: 150033103)
Cluster (id: 150031907) was merged into Cluster (id: 150031904)
Cluster (id: 150033902) was merged into Cluster (id: 150033901)
Cluster (id: 150033704) was merged into Cluster (id: 150033703)
Cluster (id: 150090902) was merged into Cluster (id: 150090903)
Cluster (id: 150051312) was merged into Cluster (id: 150091005)
Cluster (id: 150033801) was merged into Cluster (id: 150033805)
Cluster (id: 150091207) was merged into Cluster (id: 150091204)
Cluster (id: 150010402) was merged into Cluster (id: 150010406)
Cluster (id: 150010706) was merged into Cluster (id: 150010102)
Cluster (id: 150032001) was merged into Cluster (id: 150032403)
Cluster (id: 150090801) was merged into Cluster (id: 150091003)
Cluster (id: 150032506) was merged into Cluster (id: 150032207)
Cluster (id: 150034804) was merged into Cluster (id: 150034803)
Cluster (id: 150033904) was merged into Cluster (id: 150033906)
Cluster (id: 150010208) was merged into Cluster (id: 150010206)
Cluster (id: 150032604) was merged into Cluster (id: 150032602)
Cluster (id: 150033905) was merged into Cluster (id: 150033702)
Cluster (id: 150032805) was merged into Cluster (id: 150032606)
Cluster (id: 150032101) was merged into Cluster (id: 150032203)
Cluster (id: 150031904) was merged into Cluster (id: 150032003)
Cluster (id: 150010704) was merged into Cluster (id: 150010603)
Cluster (id: 150010206) was merged into Cluster (id: 150010114)
Cluster (id: 150034803) was merged into Cluster (id: 150034906)
Cluster (id: 150032806) was merged into Cluster (id: 150032903)
Cluster (id: 150032203) was merged into Cluster (id: 150032005)
Cluster (id: 150071602) was merged into Cluster (id: 150071505)
Cluster (id: 150034305) was merged into Cluster (id: 150034304)
Cluster (id: 150010406) was merged into Cluster (id: 150010403)
Cluster (id: 150071502) was merged into Cluster (id: 150071504)
Cluster (id: 150091102) was merged into Cluster (id: 150091103)
Cluster (id: 150071504) was merged into Cluster (id: 150071604)
Cluster (id: 150033003) was merged into Cluster (id: 150032704)
Cluster (id: 150033101) was merged into Cluster (id: 150033105)
Cluster (id: 150090807) was merged into Cluster (id: 150090904)
Cluster (id: 150034203) was merged into Cluster (id: 150034204)
Cluster (id: 150033306) was merged into Cluster (id: 150033407)
Cluster (id: 150034605) was merged into Cluster (id: 150034603)
Cluster (id: 150033607) was merged into Cluster (id: 150033604)
Cluster (id: 150071405) was merged into Cluster (id: 150071501)
Cluster (id: 150031706) was merged into Cluster (id: 150031702)
Cluster (id: 150071501) was merged into Cluster (id: 150071605)
Cluster (id: 150032301) was merged into Cluster (id: 150032302)
Cluster (id: 150034501) was merged into Cluster (id: 150034502)
Cluster (id: 150034702) was merged into Cluster (id: 150034907)
Cluster (id: 150010603) was merged into Cluster (id: 150010606)
Cluster (id: 150033006) was merged into Cluster (id: 150032901)
Cluster (id: 150032304) was merged into Cluster (id: 150032803)
Cluster (id: 150091002) was merged into Cluster (id: 150091101)
Cluster (id: 150090904) was merged into Cluster (id: 150090802)
Cluster (id: 150031703) was merged into Cluster (id: 150031704)
Cluster (id: 150010102) was merged into Cluster (id: 150010703)
Cluster (id: 150033601) was merged into Cluster (id: 150033405)
Cluster (id: 150033206) was merged into Cluster (id: 150033406)
Cluster (id: 150035002) was merged into Cluster (id: 150035104)
Cluster (id: 150034403) was merged into Cluster (id: 150034402)
Cluster (id: 150033505) was merged into Cluster (id: 150033502)
Cluster (id: 150033207) was merged into Cluster (id: 150033401)
Cluster (id: 150090903) was merged into Cluster (id: 150090906)
Cluster (id: 150033005) was merged into Cluster (id: 150034704)
Cluster (id: 150032601) was merged into Cluster (id: 150032406)
Cluster (id: 150034001) was merged into Cluster (id: 150034105)
Cluster (id: 150033401) was merged into Cluster (id: 150033302)
Cluster (id: 150091204) was merged into Cluster (id: 150091301)
Cluster (id: 150032204) was merged into Cluster (id: 150032405)
Cluster (id: 150034907) was merged into Cluster (id: 150034706)
Cluster (id: 150034006) was merged into Cluster (id: 150034005)
Cluster (id: 150033701) was merged into Cluster (id: 150034102)
Cluster (id: 150032302) was merged into Cluster (id: 150032104)
Cluster (id: 150010305) was merged into Cluster (id: 150010307)
Cluster (id: 150010503) was merged into Cluster (id: 150010502)
Cluster (id: 150071605) was merged into Cluster (id: 150071402)
Cluster (id: 150010601) was merged into Cluster (id: 150010608)
Cluster (id: 150010509) was merged into Cluster (id: 150010202)
Cluster (id: 150034302) was merged into Cluster (id: 150034303)
Cluster (id: 150010202) was merged into Cluster (id: 150010505)
Cluster (id: 150010505) was merged into Cluster (id: 150010707)
Cluster (id: 150033504) was merged into Cluster (id: 150034106)
Cluster (id: 150091005) was merged into Cluster (id: 150091307)
Cluster (id: 150032903) was merged into Cluster (id: 150032905)
Cluster (id: 150090802) was merged into Cluster (id: 150090806)
Cluster (id: 150033302) was merged into Cluster (id: 150033303)
Cluster (id: 150035001) was merged into Cluster (id: 150035107)
Cluster (id: 150034303) was merged into Cluster (id: 150034306)
Cluster (id: 150031901) was merged into Cluster (id: 150031803)
Cluster (id: 150034306) was merged into Cluster (id: 150034205)
Cluster (id: 150034502) was merged into Cluster (id: 150034503)
Cluster (id: 150034503) was merged into Cluster (id: 150034404)
Cluster (id: 150033105) was merged into Cluster (id: 150033202)
Cluster (id: 150033202) was merged into Cluster (id: 150033103)
Cluster (id: 150032405) was merged into Cluster (id: 150032502)
Cluster (id: 150034105) was merged into Cluster (id: 150033703)
Cluster (id: 150034202) was merged into Cluster (id: 150034003)
Cluster (id: 150033406) was merged into Cluster (id: 150033301)
Cluster (id: 150035107) was merged into Cluster (id: 150035007)
Cluster (id: 150032406) was merged into Cluster (id: 150032403)
Cluster (id: 150033805) was merged into Cluster (id: 150033906)
Cluster (id: 150034205) was merged into Cluster (id: 150034304)
Cluster (id: 150071604) was merged into Cluster (id: 150071505)
Cluster (id: 150032704) was merged into Cluster (id: 150033001)
Cluster (id: 150091101) was merged into Cluster (id: 150091103)
Cluster (id: 150034304) was merged into Cluster (id: 150034204)
Cluster (id: 150091301) was merged into Cluster (id: 150091302)
Cluster (id: 150032803) was merged into Cluster (id: 150032602)
Cluster (id: 150033703) was merged into Cluster (id: 150033702)
Cluster (id: 150033906) was merged into Cluster (id: 150033901)
Cluster (id: 150010707) was merged into Cluster (id: 150010112)
Cluster (id: 150033803) was merged into Cluster (id: 150033604)
Cluster (id: 150031704) was merged into Cluster (id: 150031702)
Cluster (id: 150032207) was merged into Cluster (id: 150032103)
Cluster (id: 150033407) was merged into Cluster (id: 150033405)
Cluster (id: 150034404) was merged into Cluster (id: 150034402)
Cluster (id: 150034906) was merged into Cluster (id: 150034704)
Cluster (id: 150033001) was merged into Cluster (id: 150032901)
Cluster (id: 150032005) was merged into Cluster (id: 150032002)
Cluster (id: 150033301) was merged into Cluster (id: 150033203)
Cluster (id: 150033702) was merged into Cluster (id: 150034102)
Cluster (id: 150090806) was merged into Cluster (id: 150091003)
Cluster (id: 150032602) was merged into Cluster (id: 150032606)
Cluster (id: 150031803) was merged into Cluster (id: 150032003)
Cluster (id: 150034106) was merged into Cluster (id: 150033502)
Cluster (id: 150034706) was merged into Cluster (id: 150034601)
Cluster (id: 150010403) was merged into Cluster (id: 150010502)
Cluster (id: 150010112) was merged into Cluster (id: 150010114)
Cluster (id: 150034402) was merged into Cluster (id: 150034603)
Cluster (id: 150010606) was merged into Cluster (id: 150010608)
Cluster (id: 150091003) was merged into Cluster (id: 150090906)
Cluster (id: 150034603) was merged into Cluster (id: 150034602)
Cluster (id: 150010114) was merged into Cluster (id: 150010307)
Cluster (id: 150034704) was merged into Cluster (id: 150035104)
Cluster (id: 150090906) was merged into Cluster (id: 150091307)
Cluster (id: 150034003) was merged into Cluster (id: 150034005)
Cluster (id: 150010307) was merged into Cluster (id: 150010703)
Cluster (id: 150032606) was merged into Cluster (id: 150032905)
Cluster (id: 150034102) was merged into Cluster (id: 150033604)
Cluster (id: 150032905) was merged into Cluster (id: 150032104)
Cluster (id: 150032003) was merged into Cluster (id: 150031702)
Cluster (id: 150033604) was merged into Cluster (id: 150033303)
Cluster (id: 150033303) was merged into Cluster (id: 150033405)
Cluster (id: 150091302) was merged into Cluster (id: 150091103)
Cluster (id: 150032901) was merged into Cluster (id: 150032403)
Cluster (id: 150071402) was merged into Cluster (id: 150071505)
Cluster (id: 150035104) was merged into Cluster (id: 150035007)
Cluster (id: 150032502) was merged into Cluster (id: 150032103)
Cluster (id: 150034204) was merged into Cluster (id: 150033502)
Cluster (id: 150032103) was merged into Cluster (id: 150032002)
Cluster (id: 150032403) was merged into Cluster (id: 150033103)
Cluster (id: 150010703) was merged into Cluster (id: 150010608)
Cluster (id: 150035007) was merged into Cluster (id: 150034601)
Cluster (id: 150034601) was merged into Cluster (id: 150033203)
Cluster (id: 150010608) was merged into Cluster (id: 150010502)
Cluster (id: 150033405) was merged into Cluster (id: 150033901)
Cluster (id: 150033901) was merged into Cluster (id: 150034005)
Cluster (id: 150034602) was merged into Cluster (id: 150071505)
Cluster (id: 150091307) was merged into Cluster (id: 150091103)
Cluster (id: 150032002) was merged into Cluster (id: 150031702)
Cluster (id: 150033103) was merged into Cluster (id: 150032104)
Cluster (id: 150034005) was merged into Cluster (id: 150033502)
Cluster (id: 150033203) was merged into Cluster (id: 150071505)
Cluster (id: 150010502) was merged into Cluster (id: 150091103)

Total redistrict moves: 2
Precinct (id: 150034804) was moved into District (id: 150032104) from District (id: 150071505
Precinct (id: 150033406) was moved into District (id: 150033502) from District (id: 150071505
